594555 555620 434
261206 957129 525
976279 608287 525
956391 844274 507
637468 597992 509
935647 881884 476
38325 353699 443
758217 482683 509
258942 179910 443
877323 425837 525
169853 551523 470
740694 998092 525
257352 119752 443
121506 960334 525
985945 579003 525
810744 521024 509
312302 743870 509
904629 445303 525
623411 984557 525
222338 529423 470
943054 494091 525
566290 799986 509
347853 938877 525
379631 19784 443
428101 428854 294
104371 936635 525
248572 459924 449
210805 414288 449
75028 252551 443
861212 793136 525
825561 715090 468
971534 686561 525
505031 563766 470
439839 817001 509
251000 206612 443
20806 966456 525
131577 433181 449
222759 460452 449
2810 904817 525
36274 857255 525
320946 790180 509
735436 335955 509
270341 918906 525
884998 781861 525
235663 339179 407
668389 624453 509
591808 929643 525
212420 744614 509
755911 275298 509
734597 98184 509
25873 313138 443
270875 890229 525
587136 533555 452
724134 291148 509
951208 268513 525
462314 105003 449
616147 717271 509
127082 9407 354
980230 164188 525
690192 435555 509
879793 669766 525
382646 216861 443
753548 456926 509
244697 912019 525
884007 596993 525
404998 47603 443
886773 91969 525
678566 172258 509
766519 985226 525
588755 420660 470
797596 116940 509
250209 681057 509
357785 900422 525
819725 725537 468
262911 412596 449
517463 153475 470
106830 530180 470
348301 619184 470
420190 200443 449
336114 246946 407
206988 709210 509
793052 658794 504
335912 378590 441
669193 655017 442
561349 581701 421
713420 519563 509
488177 312023 449
907444 135834 525
118899 580014 470
312764 400699 441
693431 677724 442
759292 185698 509
399769 360078 436
291618 274874 389
728020 635435 504
820678 246440 509
846122 707270 525
77609 617609 470
434949 750626 509
644937 592378 509
648912 200708 509
26338 638714 509
865640 434697 525
551204 694301 509
727975 147301 509
864014 567648 525
601028 98167 470
560009 859172 525
181534 379332 443
102092 586544 470
281236 617911 470
690132 60820 509
539297 803710 509
16264 298587 443
316230 935028 525
999442 829568 525
398904 593126 470
683494 337820 509
674601 412465 509
233085 321491 407
684393 912127 525
746764 918184 525
776055 347320 509
562494 441202 470
596227 820554 509
456346 192363 449
238288 549895 470
811214 634218 504
715973 590896 509
134343 283599 443
714057 857825 525
681389 213956 509
608830 37863 470
992043 492034 525
943778 509364 525
657527 842785 525
351735 593084 470
615782 384904 470
64143 705704 509
516184 93419 470
942528 440518 525
510866 405959 449
142805 6972 375
303887 311967 371
727935 880423 525
267542 830522 509
849924 227883 525
451873 182640 449
752336 992920 525
799146 424772 509
4800 291506 443
928702 947886 507
285458 831107 509
679669 254404 509
970964 253828 525
754928 838797 525
584786 397960 470
468433 326227 449
756484 409490 509
973500 909775 507
938491 546398 525
972680 657126 525
262366 423840 449
572657 166374 470
492546 572131 470
758055 323542 509
51291 825645 509
264639 375514 441
855996 286949 525
25667 15846 282
690002 267178 509
752324 256904 509
453962 676928 509
620145 964339 525
755076 621527 509
50822 895367 525
467659 381660 449
54408 497714 449
374823 971309 525
142902 208568 383
41526 729451 509
21477 612048 470
684255 435489 509
130929 163952 383
280725 550034 470
948060 771710 525
388387 565249 470
150529 240104 443
383099 132414 443
234940 760440 509
519845 160477 470
882368 634940 525
563865 573621 421
190208 846262 525
103163 415969 449
819606 921229 525
179906 614861 470
967022 414745 525
328029 411774 449
924593 797993 525
681970 953670 525
36839 937404 525
912327 775886 525
46977 93851 351
296064 969698 525
733702 853054 525
770170 988739 525
343833 567116 470
197966 211095 373
331505 283378 389
738899 804114 468
352925 367021 410
701248 903569 525
50944 436250 449
720444 56640 509
47448 175418 383
241701 740893 509
192205 614815 470
239101 602456 470
37168 32272 324
869724 146508 525
