76306 231935 443
220812 364563 443
12931 178565 383
154866 425492 449
19870 698965 509
353700 909984 525
539662 449386 470
299627 884509 525
245831 522960 470
46346 998717 525
874662 838523 432
2248 71876 340
535863 805663 509
248069 709035 509
10014 557254 470
688389 764113 504
629862 66159 509
910932 955107 507
961749 57804 525
785041 956735 525
449413 132230 449
564423 867660 525
530767 610108 452
327563 606853 470
70238 659712 509
975900 6497 525
795909 228379 509
955037 488065 525
765711 242952 509
99661 295274 443
716035 712183 411
24091 190011 383
508299 741219 509
855943 570468 525
442967 597880 470
345503 571978 470
386966 996628 525
614430 894573 525
688721 121989 509
264728 886115 525
550106 892917 525
384615 770637 509
862005 170266 525
617285 536837 452
687533 643505 442
919972 981133 507
504987 815552 509
900608 636220 525
68650 581062 470
420759 284914 449
553981 544157 452
275672 451467 449
749205 423514 509
631744 663139 429
848922 868680 419
475411 382762 449
91304 31743 351
350974 270547 441
596236 350170 470
952935 463010 525
131344 221452 386
779781 237577 509
649658 383472 509
810975 672377 504
731243 664404 504
590441 701250 509
472668 210374 449
192630 94396 383
785682 546967 509
903345 941288 507
311092 810053 509
7208 604278 470
424359 240467 449
858549 622417 525
817528 755591 468
572380 89532 470
618039 285698 470
865146 430606 525
118341 445898 449
401320 754094 509
385277 781689 509
392391 51649 443
701185 381361 509
971387 118412 525
840690 8569 525
684532 903315 525
749517 351001 509
642895 690282 442
409479 52631 443
589050 980675 525
863235 489601 525
358718 218413 443
123314 163526 383
794972 773745 437
730881 513458 509
840622 760066 525
935619 900862 476
778541 213321 509
846490 771706 525
949233 951858 414
182734 790359 509
574379 336038 470
535066 314168 470
803096 219032 509
737656 951249 525
212478 461758 449
594979 585411 403
608254 233668 470
608418 133823 470
574739 918061 525
840918 835600 525
454319 85229 449
619822 242929 470
88445 323779 443
575147 710581 509
824186 84956 509
296725 3588 443
641074 898403 525
428847 395772 449
612998 242157 470
117048 220604 386
488796 197948 449
705619 867265 525
904738 718595 525
159121 898896 525
441121 296271 449
851013 328811 525
920878 428475 525
21298 301615 443
388180 55550 443
877162 456384 525
893148 791013 525
639277 130413 509
132498 295204 443
911649 543978 525
552354 840729 525
3799 242263 443
2436 422742 449
983323 461699 525
490257 240909 449
246762 183101 443
143869 895178 525
638096 508453 509
116223 415030 449
807098 468261 509
640637 777412 504
277622 669330 509
391374 694257 509
873007 493357 525
340889 681958 509
464791 576962 470
274421 513082 470
494119 388881 449
100438 947767 525
340085 788723 509
212869 748998 509
693647 396182 509
874249 976253 507
531890 411035 470
781053 963246 525
868366 209792 525
17480 417538 449
637537 114927 509
8330 928020 525
698126 990338 525
242658 129692 443
841869 890588 445
498632 592103 470
448946 128134 449
493117 82735 449
486119 467223 413
782461 702897 504
118226 234981 443
142164 975520 525
879156 793058 525
553059 79177 470
66594 226024 386
510425 344844 449
924202 532712 525
906117 776796 525
955022 677109 525
840036 318486 525
773354 243421 509
705444 670361 504
327482 995432 525
489813 751632 509
756754 372068 509
839977 145815 525
6224 95324 351
720207 13514 509
84047 356578 443
651053 338692 509
222501 218232 355
320143 407223 441
984281 726102 525
516162 966110 525
926115 880419 476
269412 406366 441
103359 803860 509
524449 833582 509
106473 335027 443
783216 307459 509
614427 356904 470
31931 65518 340
732691 50169 509
146623 680385 509
179343 529662 470
985978 184586 525
705970 96060 509
859458 981703 507
482334 712883 509
716718 786201 468
219470 536331 470
929061 711442 525
891484 333296 525
954139 143465 525
855412 353879 525
488979 266164 449
351080 96666 443
960243 843374 507
761972 321287 509
291404 82025 443
876362 930618 476
422647 345919 449
688008 916685 525
938308 646594 525
997844 765435 525
917851 213235 525
929710 688528 525
878589 187660 525
