99800 353555 443
527669 110671 470
985183 641745 525
801707 736027 468
590039 22738 470
260478 889535 525
50634 426052 449
822147 678937 504
623955 682215 509
754071 483753 509
171359 223635 386
832438 33035 509
663308 657508 398
559835 404571 470
232022 857679 525
10445 469141 449
985463 18060 525
442016 694135 509
648631 360084 509
195502 386099 443
943559 771545 525
346020 230234 443
50691 539890 470
173631 965379 525
432622 70083 449
174264 246694 443
107454 724503 509
609661 748485 509
26439 47143 324
884515 245822 525
58901 349093 443
994025 729065 525
116197 541500 470
565963 409780 470
211186 626447 509
651603 485188 509
439746 80657 449
864857 526319 525
568667 870424 525
787231 472121 509
673070 742571 504
81592 918182 525
434977 656329 509
568368 974877 525
520619 840026 525
156637 457633 449
789184 637169 504
105204 588373 470
562075 511334 470
848491 853192 357
125652 972990 525
119978 117403 336
514115 224735 470
422162 848393 525
197875 566435 470
253369 184573 443
19753 277907 443
161487 171660 352
364941 882463 525
780176 982109 525
908329 126227 525
423066 867494 525
603908 614225 403
309078 156997 443
646153 225944 509
33902 739772 509
895600 399460 525
781775 54403 509
507397 111564 449
23716 635366 509
567079 885305 525
660155 704896 504
60831 263671 443
41836 115879 354
66152 645540 509
943437 380775 525
932902 426555 525
209875 96253 383
787939 7396 509
55816 697058 509
761494 828348 468
579803 929909 525
197803 414360 449
100738 478168 449
137172 916539 525
861418 873159 432
246586 255041 363
247615 652739 509
4219 278384 443
949210 735954 525
708558 503469 509
67149 550405 470
569271 949832 525
157667 103999 383
8892 638224 509
809157 734930 468
207120 74331 383
498282 775383 509
184772 338837 443
287741 4389 443
362678 280669 441
141366 264226 443
924660 928757 476
488248 434371 444
737094 371451 509
124014 501391 449
105607 710830 509
592226 125410 470
281937 740171 509
687021 829079 504
685345 612626 509
607808 676633 509
58335 59720 273
882411 7584 525
248144 777443 509
591464 201858 470
313501 45672 443
925391 365602 525
887326 15768 525
669820 221425 509
128594 252304 443
297883 951211 525
357846 90845 443
581789 16670 470
152760 419530 449
991187 351922 525
111056 969081 525
517600 409063 470
873642 896381 445
501863 720802 509
741530 715491 424
257475 418258 449
271820 51747 443
255446 146271 443
793267 978321 525
589993 14220 470
441345 902711 525
588120 819555 509
438468 713115 509
824104 397543 509
195467 272661 443
660369 140603 509
110503 259469 443
217668 98710 386
909632 979068 507
338031 539758 470
890485 648031 525
560089 43459 470
905158 768822 525
741162 853346 525
738236 228104 509
477338 989740 525
366703 64658 443
156414 697562 509
876942 53944 525
570259 30946 470
383467 106626 443
103511 554027 470
107082 88994 354
855201 594890 525
793564 460154 509
405054 698385 509
53680 29099 340
502193 645557 509
753639 210821 509
629208 842268 525
175840 903557 525
534884 80704 470
791687 968753 525
293026 228571 443
874796 256720 525
433675 210509 449
883814 261265 525
315925 311854 384
80565 575219 470
545948 291090 470
693423 942442 525
659596 733112 504
323825 942479 525
697184 960951 525
694242 152069 509
58508 239843 443
349480 611982 470
811893 450613 509
823804 285444 509
587222 85752 470
859456 878618 432
795161 515137 509
318308 36841 443
279766 966002 525
457696 760044 509
172386 827517 509
387364 818767 509
29800 369340 443
94345 15813 351
25678 920226 525
819336 300358 509
146501 169089 383
396376 256408 441
870468 743519 525
768130 528385 509
875406 223889 525
710591 881222 525
736499 965145 525
909609 483682 525
247964 533426 470
444741 238207 449
743490 93032 509
371462 692248 509
779036 309217 509
280769 633450 509
293506 745053 509
780485 720164 468
859194 568778 525
777683 146954 509
935283 290047 525
361736 67297 443
784016 851046 525
22144 426545 449
620924 941504 525
26203 241208 443
375230 23097 443
816092 831963 450
680378 534144 509
410192 595752 470
144835 287612 443
299293 522360 470
808448 844146 525
446578 337052 449
