834019 32141 509
797395 375960 509
842444 753061 525
306044 41435 443
934177 228968 525
498798 497781 351
829899 828733 375
243315 960756 525
504383 610975 470
498163 861377 525
342846 609407 470
621114 756660 509
814015 281629 509
954181 803317 525
531372 705688 509
668483 334466 509
750849 320893 509
68190 395915 443
9259 908970 525
290366 11717 443
966187 576248 525
399840 938290 525
641655 135508 509
453872 77166 449
829229 849060 525
990022 107027 525
675792 995433 525
172784 878925 525
130766 777196 509
655303 7670 509
107662 890922 525
418217 739519 509
609702 706743 509
306354 57456 443
255943 898158 525
592189 314351 470
785997 160268 509
177857 831257 509
449068 193014 449
632697 209752 509
126014 331565 443
214776 679311 509
721903 565056 509
607875 153100 470
673392 664413 442
783398 241087 509
114764 630989 509
139838 400765 443
812133 554329 509
329281 816213 509
634239 351722 509
444383 948292 525
479680 999645 525
101676 59157 351
7392 853932 525
599117 594627 372
61649 376089 443
600124 90611 470
332381 770659 509
628274 825091 504
605984 703284 509
724403 398087 509
858427 831340 525
65121 288325 443
686716 197032 509
803355 356407 509
751261 782756 468
771384 528671 509
822911 540530 509
649893 227814 509
497093 809685 509
340825 651311 509
800382 375734 509
264205 630281 509
777644 336757 509
795577 579516 509
479666 537907 470
923207 514224 525
976147 297220 525
25380 861684 525
565930 901045 525
664232 894080 525
46245 793828 509
611989 952633 525
930266 518491 525
322603 497665 449
682135 945195 525
126964 906744 525
932173 8952 525
411844 192696 449
477236 425141 444
957531 668291 525
372346 216497 443
293175 288974 345
102596 966938 525
771752 296211 509
12959 351886 443
708197 408988 509
882417 950039 507
979678 212459 525
22417 281707 443
164914 226185 386
102483 888809 525
595315 290189 470
525802 946206 525
624153 1551 470
318258 821388 509
430766 550772 470
942185 394885 525
416471 299028 449
990768 903407 507
767706 397846 509
679583 620215 509
863931 301846 525
762877 228687 509
27798 455234 449
809733 465950 509
248231 992813 525
296958 9818 443
546965 95719 470
657898 867032 525
850045 366907 525
100710 79974 341
28102 816119 509
445899 757222 509
513012 942824 525
664211 863568 525
569306 997366 525
326290 391339 441
39508 51838 314
817421 47664 509
621122 84740 470
985670 318555 525
461392 66911 449
163929 150671 383
407825 126901 443
668643 198142 509
85047 788758 509
926089 291961 525
13638 612895 470
65126 123598 354
203308 204527 311
627942 118634 509
203494 604719 470
930624 662422 525
784675 953126 525
699046 297351 509
654147 745401 504
199216 141480 383
118835 83103 354
683560 743403 504
752495 993783 525
44297 572011 470
588177 404584 470
895478 475450 525
5224 853138 525
150441 372795 443
205805 140051 383
981637 601566 525
118835 720640 509
418890 332230 449
768588 802966 468
414405 852633 525
698782 682181 442
3190 811089 509
569058 375601 470
419136 987128 525
879712 686874 525
723309 238089 509
832798 919301 525
55694 358591 443
621030 665199 509
725030 99357 509
462562 321508 449
570944 296094 470
472755 24933 449
775753 629765 504
887885 185981 525
175139 814547 509
898239 3218 525
772562 875923 525
121401 364423 443
932609 421082 525
865124 671721 525
302230 435232 449
845010 798156 525
137198 553744 470
648699 766499 504
80023 397068 443
934179 584099 525
728691 335133 509
77604 903962 525
336380 124172 443
539077 847323 525
434272 101841 449
278613 261634 407
786086 448261 509
197921 530169 470
856079 374187 525
109224 706430 509
695832 132931 509
294423 526105 470
248802 868470 525
509377 229468 449
537557 132964 470
725251 246967 509
742305 810257 468
113107 842688 525
969354 209371 525
694797 655153 442
538981 139389 470
932046 939455 445
865077 179660 525
859265 950484 507
24648 197936 383
133159 55948 354
994155 703938 525
380801 856855 525
565881 339034 470
