558749 491119
950144 414289
180827 761282
240524 504218
596348 881047
94532 163926
154587 900437
219449 333073
29195 870598
169160 506909
320946 920231
701271 880954
700431 606262
484272 526124
180581 532938
387950 628300
139772 828538
455305 472026
444869 481972
147226 522311
299877 545721
978955 404916
887151 383851
128064 221740
890022 159078
976548 347525
90353 988096
554015 25365
132963 588834
28408 949701
796987 109587
633750 817785
246208 866871
735666 730489
370449 830424
187532 711582
803523 99986
270621 543101
230431 755322
327633 941777
756827 95092
271504 836517
488935 18454
948477 143961
180986 260002
921272 73419
482257 335553
808102 104768
733581 28701
430444 320604
767749 369126
650367 652238
510663 610571
958139 447907
55906 228923
160811 576795
683463 745414
512381 385804
973159 334152
689230 687838
589781 936034
332258 953964
98081 825837
592437 608559
147296 577940
997647 419766
853516 269086
265514 735864
975787 584524
203648 225668
894476 573755
714889 767045
23267 555088
326211 403211
19817 766643
209136 268335
718770 554074
767008 10392
641784 706364
927206 32714
512686 209002
102353 291949
884289 480600
696296 256995
895129 984791
978744 359782
253618 332178
539953 483329
717373 343443
176865 647828
370206 868669
136094 228447
344854 716449
393390 28443
22605 809989
286452 180012
806354 266952
500762 185839
112186 117976
791089 579703
132688 939730
486808 897230
887511 565124
468732 362976
493680 667560
154858 920553
464696 102968
227282 128060
887525 712305
884579 750562
349894 749280
68468 890199
919379 520473
583038 234176
588923 922512
628236 213106
631574 354610
17652 407690
693235 640078
930368 450031
692069 858166
873278 271419
398703 626487
795828 786750
745598 974347
155925 480023
261677 2579
35133 403853
208799 352881
83313 163806
850816 590471
764638 5096
839982 73657
74224 36990
706978 152437
305739 627251
552661 953923
16018 198644
622463 307805
908966 42851
42454 945144
676863 25684
209450 267880
419810 145555
188433 196584
959437 355513
769799 910041
54750 108681
676872 354293
898214 988060
614631 905252
810550 34409
741272 767643
707373 546551
548105 473110
85822 953025
484294 991670
637186 904951
399202 789292
786453 76817
519697 46401
576771 205430
246269 729952
311561 196976
800225 516816
729747 435413
733196 473828
484928 648726
262578 760741
240466 958912
255559 161475
17503 912602
465700 867790
250776 676283
45971 465413
834171 863525
831472 290168
100057 956853
160267 20331
711873 972033
828208 457041
627648 162513
568311 671314
342332 83584
457444 545187
891978 562502
236702 23956
891905 666856
646926 584076
217172 194948
525427 605730
563868 993449
610235 996617
470672 516224
298243 761067
869741 549930
314950 275009
449241 142083
284749 655829
442226 369983
603099 320967
546938 523309
542452 79150
83994 558247
863227 619063
378499 594152
380382 555179
