722923 170263 509
599208 837066 509
869013 605987 525
880732 203455 525
208534 400785 443
264524 293523 407
617535 661921 509
476624 752467 509
233234 400662 441
534624 721295 509
449052 959125 525
823745 781167 468
692231 436209 509
354789 439989 449
981097 383422 525
344935 574814 470
897631 327505 525
147052 635173 509
467436 14736 449
152386 239789 443
907758 111697 525
762913 398091 509
367312 363036 361
312257 990177 525
53056 162847 383
115241 740542 509
167636 604436 470
454527 427168 400
121331 281941 443
919468 574462 525
734946 161284 509
489468 573825 470
415024 383795 449
395825 526600 470
921036 635830 525
832642 839375 525
194632 696169 509
309245 338321 384
432178 98464 449
992143 253425 525
270524 334879 389
358810 314104 441
402923 708675 509
640942 489887 509
437546 181245 449
461654 805363 509
652053 938343 525
969697 290068 525
739356 904967 525
664352 901326 525
881225 359609 525
346668 679370 509
291945 876024 525
733684 266962 509
843945 892245 445
933486 530541 525
703767 482864 509
443734 322847 449
595956 835884 509
852763 241109 525
785734 84924 509
742921 816552 468
71924 823366 509
869646 872479 432
381645 463852 449
677598 916463 525
832290 646258 504
836334 381048 509
297932 993474 525
832835 602524 509
390823 337963 441
126031 913850 525
715531 618363 509
751965 525325 509
644634 311875 509
255334 794273 509
491566 288457 449
757078 663893 504
650732 840153 525
167972 124973 383
112083 113790 323
554986 905543 525
932436 454813 525
278579 619154 470
699852 886167 525
642563 729973 504
329242 390779 441
308056 210960 443
812732 935476 525
566468 622786 447
722879 157455 509
344652 905322 525
143152 447942 449
139683 460863 449
541421 949156 525
925346 296486 525
771546 963589 525
716790 714362 380
250486 323323 407
710791 162588 509
145945 563945 470
887735 605837 525
946431 388099 525
594847 288706 470
196219 664953 509
462605 967457 525
310714 165092 443
197093 441373 449
766402 177025 509
264409 664775 509
865714 315567 525
505948 915523 525
223914 206364 386
235641 363595 441
48732 509967 449
854352 239774 525
325334 663847 509
984279 540166 525
559424 993823 525
454242 636565 509
634191 764389 504
677789 521747 509
819855 484724 509
342932 301281 384
823185 42431 509
548042 231057 470
43836 209854 383
363896 666607 509
742452 395144 509
214257 199352 373
590512 345425 470
415464 588287 470
319640 769298 509
181840 946465 525
831563 191468 509
400645 320885 441
545323 822234 509
740156 105567 509
723478 364286 509
41303 866057 525
235554 565832 470
675489 204580 509
183674 437945 449
436069 188278 449
382431 736254 509
961251 370223 525
932153 814668 525
238946 473234 449
829637 224556 509
734352 462173 509
130289 454490 449
518690 762138 509
918171 370563 525
207941 221205 386
549941 89667 470
286732 793445 509
769654 740454 468
828425 223650 509
859078 995162 507
544452 101473 470
572165 481005 470
982278 821052 525
625838 686567 509
893133 417805 525
576578 212832 470
967656 654823 525
452399 695356 509
476331 24864 449
784873 260375 509
247046 608987 470
229778 230296 306
191442 220943 386
424132 209975 449
310032 339298 384
585225 911033 525
574066 887623 525
925677 545864 525
309989 773062 509
289756 556568 470
308234 898467 525
765437 593382 509
450314 854067 525
456154 711962 509
374565 591643 470
604689 271306 470
549398 220809 470
878346 845045 432
670542 752678 504
226032 490254 449
581356 180572 470
439367 512053 470
821432 290816 509
312146 561207 470
688196 483853 509
811446 821957 450
326267 749365 509
866923 517177 525
102466 814534 509
504964 717557 509
191942 427875 449
